﻿{
  "dependencies": {
    "MathNet.Filtering": "0.3.0",
    "Microsoft.NETCore.UniversalWindowsPlatform": "5.3.1",
    "NAudio": "1.8.0",
    "Newtonsoft.Json": "10.0.1",
    "WindowsAzure.Storage": "8.1.1"
  },
  "frameworks": {
    "uap10.0": {}
  },
  "runtimes": {
    "win10-arm": {},
    "win10-arm-aot": {},
    "win10-x86": {},
    "win10-x86-aot": {},
    "win10-x64": {},
    "win10-x64-aot": {}
  }
}